
DisplayName "Pyramid 4F"



EVENT   1
 PAGE   1
  250(bytes(0x04,0x08,0x6f,0x3a,0x0c,0x52,0x50,0x47,0x3a,0x3a,0x53,0x45,0x08,0x3a,0x0a,0x40,0x6e,0x61,0x6d,0x65,0x49,0x22,0x09,0x4d,0x6f,0x76,0x65,0x06,0x3a,0x06,0x45,0x54,0x3a,0x0b,0x40,0x70,0x69,0x74,0x63,0x68,0x69,0x69,0x3a,0x0c,0x40,0x76,0x6f,0x6c,0x75,0x6d,0x65,0x69,0x55))
  TeleportPlayer(0,116,8,35,0,0)
  0()



EVENT   2
 PAGE   1
  250(bytes(0x04,0x08,0x6f,0x3a,0x0c,0x52,0x50,0x47,0x3a,0x3a,0x53,0x45,0x08,0x3a,0x0a,0x40,0x6e,0x61,0x6d,0x65,0x49,0x22,0x09,0x4d,0x6f,0x76,0x65,0x06,0x3a,0x06,0x45,0x54,0x3a,0x0b,0x40,0x70,0x69,0x74,0x63,0x68,0x69,0x69,0x3a,0x0c,0x40,0x76,0x6f,0x6c,0x75,0x6d,0x65,0x69,0x55))
  TeleportPlayer(0,116,8,35,0,0)
  0()



EVENT   3
 PAGE   1
  250(bytes(0x04,0x08,0x6f,0x3a,0x0c,0x52,0x50,0x47,0x3a,0x3a,0x53,0x45,0x08,0x3a,0x0a,0x40,0x6e,0x61,0x6d,0x65,0x49,0x22,0x09,0x4d,0x6f,0x76,0x65,0x06,0x3a,0x06,0x45,0x54,0x3a,0x0b,0x40,0x70,0x69,0x74,0x63,0x68,0x69,0x69,0x3a,0x0c,0x40,0x76,0x6f,0x6c,0x75,0x6d,0x65,0x69,0x55))
  TeleportPlayer(0,116,8,35,0,0)
  0()



EVENT   4
 PAGE   1
  250(bytes(0x04,0x08,0x6f,0x3a,0x0c,0x52,0x50,0x47,0x3a,0x3a,0x53,0x45,0x08,0x3a,0x0a,0x40,0x6e,0x61,0x6d,0x65,0x49,0x22,0x0a,0x43,0x68,0x65,0x73,0x74,0x06,0x3a,0x06,0x45,0x54,0x3a,0x0b,0x40,0x70,0x69,0x74,0x63,0x68,0x69,0x69,0x3a,0x0c,0x40,0x76,0x6f,0x6c,0x75,0x6d,0x65,0x69,0x55))
  205(0,bytes(0x04,0x08,0x6f,0x3a,0x13,0x52,0x50,0x47,0x3a,0x3a,0x4d,0x6f,0x76,0x65,0x52,0x6f,0x75,0x74,0x65,0x09,0x3a,0x0c,0x40,0x72,0x65,0x70,0x65,0x61,0x74,0x46,0x3a,0x0f,0x40,0x73,0x6b,0x69,0x70,0x70,0x61,0x62,0x6c,0x65,0x46,0x3a,0x0a,0x40,0x77,0x61,0x69,0x74,0x54,0x3a,0x0a,0x40,0x6c,0x69,0x73,0x74,0x5b,0x0b,0x6f,0x3a,0x15,0x52,0x50,0x47,0x3a,0x3a,0x4d,0x6f,0x76,0x65,0x43,0x6f,0x6d,0x6d,0x61,0x6e,0x64,0x07,0x3a,0x0a,0x40,0x63,0x6f,0x64,0x65,0x69,0x29,0x3a,0x10,0x40,0x70,0x61,0x72,0x61,0x6d,0x65,0x74,0x65,0x72,0x73,0x5b,0x00,0x6f,0x3b,0x0a,0x07,0x3b,0x0b,0x69,0x16,0x3b,0x0c,0x5b,0x00,0x6f,0x3b,0x0a,0x07,0x3b,0x0b,0x69,0x14,0x3b,0x0c,0x5b,0x06,0x69,0x08,0x6f,0x3b,0x0a,0x07,0x3b,0x0b,0x69,0x17,0x3b,0x0c,0x5b,0x00,0x6f,0x3b,0x0a,0x07,0x3b,0x0b,0x69,0x14,0x3b,0x0c,0x5b,0x06,0x69,0x08,0x6f,0x3b,0x0a,0x07,0x3b,0x0b,0x69,0x00,0x3b,0x0c,0x5b,0x00))
  ChangeSelfSwitch("A",0)
  ChangeInventoryWeapon(376,0,0,1)
  0()
 PAGE   2
  // condition: self-switch A is ON
  0()



EVENT   5
 PAGE   1
  250(bytes(0x04,0x08,0x6f,0x3a,0x0c,0x52,0x50,0x47,0x3a,0x3a,0x53,0x45,0x08,0x3a,0x0a,0x40,0x6e,0x61,0x6d,0x65,0x49,0x22,0x0a,0x43,0x68,0x65,0x73,0x74,0x06,0x3a,0x06,0x45,0x54,0x3a,0x0b,0x40,0x70,0x69,0x74,0x63,0x68,0x69,0x69,0x3a,0x0c,0x40,0x76,0x6f,0x6c,0x75,0x6d,0x65,0x69,0x55))
  205(0,bytes(0x04,0x08,0x6f,0x3a,0x13,0x52,0x50,0x47,0x3a,0x3a,0x4d,0x6f,0x76,0x65,0x52,0x6f,0x75,0x74,0x65,0x09,0x3a,0x0c,0x40,0x72,0x65,0x70,0x65,0x61,0x74,0x46,0x3a,0x0f,0x40,0x73,0x6b,0x69,0x70,0x70,0x61,0x62,0x6c,0x65,0x46,0x3a,0x0a,0x40,0x77,0x61,0x69,0x74,0x54,0x3a,0x0a,0x40,0x6c,0x69,0x73,0x74,0x5b,0x0b,0x6f,0x3a,0x15,0x52,0x50,0x47,0x3a,0x3a,0x4d,0x6f,0x76,0x65,0x43,0x6f,0x6d,0x6d,0x61,0x6e,0x64,0x07,0x3a,0x0a,0x40,0x63,0x6f,0x64,0x65,0x69,0x29,0x3a,0x10,0x40,0x70,0x61,0x72,0x61,0x6d,0x65,0x74,0x65,0x72,0x73,0x5b,0x00,0x6f,0x3b,0x0a,0x07,0x3b,0x0b,0x69,0x16,0x3b,0x0c,0x5b,0x00,0x6f,0x3b,0x0a,0x07,0x3b,0x0b,0x69,0x14,0x3b,0x0c,0x5b,0x06,0x69,0x08,0x6f,0x3b,0x0a,0x07,0x3b,0x0b,0x69,0x17,0x3b,0x0c,0x5b,0x00,0x6f,0x3b,0x0a,0x07,0x3b,0x0b,0x69,0x14,0x3b,0x0c,0x5b,0x06,0x69,0x08,0x6f,0x3b,0x0a,0x07,0x3b,0x0b,0x69,0x00,0x3b,0x0c,0x5b,0x00))
  ChangeSelfSwitch("A",0)
  ChangeInventory_Item(80,0,0,1)
  0()
 PAGE   2
  // condition: self-switch A is ON
  0()



EVENT   6
 PAGE   1
  PictureDisplay(5,"80_sphinx_st01",0,0,0,0,100,100,0,0)
  PictureMove(5,null,0,0,0,0,100,100,255,0,30,true)
  If(1,1028,0,3,2)
   ShowMessageFace("sphinx_fc1",0,0,2,1)
   ShowMessage("\\n<Sphinx>Son of Man, you have proven your measure by making it this far. I am Sphinx, master of the Pyramid.")
   ShowMessageFace("sphinx_fc1",0,0,2,2)
   ShowMessage("\\n<Sphinx>Surely you did not come here out of boredom. Pray tell, what brings you before me?")
   ShowChoices(strings("Challenge her","I was just passing through..."),2)
   IfPlayerPicksChoice(0,null)
    JumpToLabel("バトル")
    0()
   IfPlayerPicksChoice(1,null)
    ShowMessageFace("sphinx_fc1",0,0,2,3)
    ShowMessage("\\n<Sphinx>Then begone, human. I prefer the peace and quiet.")
    PictureClear(5)
    EndEventProcessing()
    0()
   404()
   0()
  EndIf()
  If(1,1028,0,4,0)
   ShowMessageFace("sphinx_fc1",0,0,2,4)
   ShowMessage("\\n<Sphinx>Son of Man, you have proven your measure by making it this far. I am Sphinx, master of the Pyramid.")
   If(0,6,0)
    ShowMessageFace("sonia_fc3",7,0,2,5)
    ShowMessage("\\n<Sonya>Wow, she's huge. And she looks tough. To be in the presence of such a legendary monster...")
    If(4,68,0)
     ShowMessageFace("dragonp_fc1",2,0,2,6)
     ShowMessage("\\n<Papi>I-I won't back down!")
     ShowMessageFace("sonia_fc2",3,0,2,7)
     ShowMessage("\\n<Sonya>Hey, its okay, it's not like we're here to fight her.")
     0()
    EndIf()
    0()
   EndIf()
   ShowMessageFace("sphinx_fc1",0,0,2,8)
   ShowMessage("\\n<Sphinx>Surely you did not come here out of boredom. Pray tell, what brings you before me?")
   ShowChoices(strings("Request an Audience","Challenge her","I was just passing through..."),2)
   IfPlayerPicksChoice(0,null)
    ChangeVariable(1028,1028,0,0,5)
    ShowMessageFace("sphinx_fc1",0,0,2,9)
    ShowMessage("\\n<Sphinx>I refuse. The affairs of humanity are not mine.")
    If(4,66,0)
     ShowMessageFace("vgirl_fc1",2,0,2,10)
     ShowMessage("\\n<Vanilla>P-please listen to us.")
     0()
    EndIf()
    If(0,4,0)
     ShowMessageFace("alice_fc5",0,0,2,11)
     ShowMessage("\\n<Alice>The monster blood within the Sabasa royal family has awakened. Queen Sara has gone mad with lust and has thrown the country into turmoil.")
     ShowMessageFace("alice_fc5",0,0,2,12)
     ShowMessage("\\n<Alice>As her ancestor, can you still say this is not your affair?")
     0()
    EndIf()
    If(0,5,0)
     ShowMessageFace("iriasu_fc4",7,0,2,13)
     ShowMessage("\\n<Ilias>The royal family's degraded blood has morphed Queen Sara into a stupid, lustful demon and the whole region has fallen into chaos!")
     ShowMessageFace("iriasu_fc4",7,0,2,14)
     ShowMessage("\\n<Ilias>Isn't that reason enough for you to get involved?")
     0()
    EndIf()
    PictureDisplay(5,"80_sphinx_st03",0,0,0,0,100,100,255,0)
    ShowMessageFace("sphinx_fc1",2,0,2,15)
    ShowMessage("\\n<Sphinx>What is this about my blood awakening within my descendant? I would hear more of this.")
    ShowMessageFace("",0,0,2,16)
    ShowMessage("We explained the situation to Sphinx...")
    ShowMessageFace("sphinx_fc1",2,0,2,17)
    ShowMessage("\\n<Sphinx>I see. What I know for certain is that someone has awakened the power within her.")
    ShowMessageFace("ruka_fc1",0,0,2,18)
    ShowMessage("\\n<Luka>In that case, can we turn Sara back to normal?")
    ShowMessageFace("sphinx_fc1",2,0,2,19)
    ShowMessage("\\n<Sphinx>There is no way to make her human again. The process totally transforms the body, spirit, and mind.")
    If(4,72,0)
     ShowMessageFace("phoenix_fc1",2,0,2,20)
     ShowMessage("\\n<Mini>There's no way to fix her?!")
     0()
    EndIf()
    ShowMessageFace("sphinx_fc1",2,0,2,21)
    ShowMessage("\\n<Sphinx>There are some ancient, long proscribed techniques. But those will ravage her body and further twist her mind.")
    ShowMessageFace("sphinx_fc1",2,0,2,22)
    ShowMessage("\\n<Sphinx>Those methods are curses, rather than cures. Unfortunately, there is no simple way to return her humanity.")
    If(0,4,0)
     ShowMessageFace("alice_fc5",3,0,2,23)
     ShowMessage("\\n<Alice>I knew it wouldn't be that easy.")
     0()
    EndIf()
    If(0,5,0)
     ShowMessageFace("iriasu_fc4",2,0,2,24)
     ShowMessage("\\n<Ilias>So there isn't any way to undo it? I suppose if I didn't know how it could be done, no one would.")
     0()
    EndIf()
    If(0,6,0)
     ShowMessageFace("sonia_fc3",7,0,2,25)
     ShowMessage("\\n<Sonya>So there's no way to cure her?")
     0()
    Else()
     ShowMessageFace("ruka_fc1",0,0,2,26)
     ShowMessage("\\n<Luka>Does this mean we can't do anything?")
     0()
    EndIf()
    PictureDisplay(5,"80_sphinx_st01",0,0,0,0,100,100,255,0)
    ShowMessageFace("sphinx_fc1",0,0,2,27)
    ShowMessage("\\n<Sphinx>Not necessarily. Instead of trying to reverse the process, we accelerate it.")
    ShowMessageFace("ruka_fc1",0,0,2,28)
    ShowMessage("\\n<Luka>Eh...!? How will that help!?")
    If(4,531,0)
     ShowMessageFace("saniria_fc2",0,0,2,29)
     ShowMessage("\\n<King of San Ilia>I can't see how that's a better option.")
     0()
    EndIf()
    ShowMessageFace("sphinx_fc1",0,0,2,30)
    ShowMessage("\\n<Sphinx>Her total loss of reason, wanton lust, and hedonistic excess are all tied to her uncontrolled nature.")
    ShowMessageFace("sphinx_fc1",0,0,2,31)
    ShowMessage("\\n<Sphinx>These are the symptoms of an immature succubus overwhelmed by sexual excitement.")
    ShowMessageFace("sphinx_fc1",0,0,2,32)
    ShowMessage("\\n<Sphinx>Once she is able to control herself, her original nature will return.")
    ShowMessageFace("sphinx_fc1",0,0,2,33)
    ShowMessage("\\n<Sphinx>She will remain a succubus, regardless. Her personality will return, and it will be a simple matter to masquerade as a human afterwards.")
    If(0,6,0)
     ShowMessageFace("sonia_fc2",2,0,2,34)
     ShowMessage("\\n<Sonya>Instead of reverting her to a human, we make her more able to live as she is now.")
     0()
    Else()
     ShowMessageFace("ruka_fc1",0,0,2,35)
     ShowMessage("\\n<Luka>So, if we complete this ritual, her sanity will return?")
     0()
    EndIf()
    If(4,41,0)
     ShowMessageFace("stein_fc2",0,0,2,36)
     ShowMessage("\\n<Promestein>I see. Well, that is the most rational solution given the limits. Our goal was only to restore her judgment, after all.")
     0()
    EndIf()
    ShowMessageFace("sphinx_fc1",0,0,2,37)
    ShowMessage("\\n<Sphinx>In order to fully awaken her monster blood... Yes, this should be the most effective way.")
    ShowMessageFace("",0,0,2,38)
    ShowMessage("Sphinx suddenly takes out a dagger and slices her own arm! She fills a small bottle from the flowing blood!")
    250(bytes(0x04,0x08,0x6f,0x3a,0x0c,0x52,0x50,0x47,0x3a,0x3a,0x53,0x45,0x08,0x3a,0x0a,0x40,0x6e,0x61,0x6d,0x65,0x49,0x22,0x0a,0x49,0x74,0x65,0x6d,0x31,0x06,0x3a,0x06,0x45,0x54,0x3a,0x0b,0x40,0x70,0x69,0x74,0x63,0x68,0x69,0x69,0x3a,0x0c,0x40,0x76,0x6f,0x6c,0x75,0x6d,0x65,0x69,0x55))
    ChangeInventory_Item(520,0,0,1)
    ShowMessageFace("sphinx_fc1",0,0,2,39)
    ShowMessage("\\n<Sphinx>Here, have her drink my blood. The power and heritage within this will stabilize her.")
    ShowMessageFace("ruka_fc1",0,0,2,40)
    ShowMessage("\\n<Luka>Thank you very much!")
    If(0,4,0)
     ShowMessageFace("alice_fc5",0,0,2,41)
     ShowMessage("\\n<Alice>That sounds simple enough, but how do we make Sara drink it? Its not like we can just mix it in with her meals and watch her eat until it works.")
     ShowMessageFace("alice_fc5",3,0,2,42)
     ShowMessage("\\n<Alice>It's going to be hard to force her to drink it, but she won't do it just because we ask her nicely to.")
     0()
    EndIf()
    If(0,5,0)
     ShowMessageFace("iriasu_fc4",2,0,2,43)
     ShowMessage("\\n<Ilias>Are we really going to perform this awful ritual? Even if we were to taint Sara's food with this blood, there is no guaranteed it will be successful.")
     ShowMessageFace("iriasu_fc4",2,0,2,44)
     ShowMessage("\\n<Ilias>We shall have to force her to drink it, instead. It would be nice if she just went along with it.")
     0()
    EndIf()
    If(4,79,0)
     ShowMessageFace("nuruko_fc1",0,0,2,45)
     ShowMessage("\\n<Nuruko>Kyuu! Kyuu!")
     0()
    EndIf()
    ShowMessageFace("ruka_fc1",0,0,2,46)
    ShowMessage("\\n<Luka>Now that we've got everything, all we have to do is meet with the Queen.")
    PictureClear(5)
    ShowMessageFace("",0,0,2,47)
    ShowMessage("\\n<Luka>With all the guards slacking off, getting to her should be easy. All we need to do is get inside her room.")
    EndEventProcessing()
    0()
   IfPlayerPicksChoice(1,null)
    JumpToLabel("バトル")
    0()
   IfPlayerPicksChoice(2,null)
    ShowMessageFace("sphinx_fc1",0,0,2,48)
    ShowMessage("\\n<Sphinx>Then leave. I like my peace and quiet...")
    PictureClear(5)
    EndEventProcessing()
    0()
   404()
   0()
  EndIf()
  If(1,1028,0,5,0)
   ShowMessageFace("sphinx_fc1",0,0,2,49)
   ShowMessage("\\n<Sphinx>Have Sara drink the blood. When she fully awakens, her sanity should return.")
   ShowChoices(strings("Challenge her","Then we're off!"),2)
   IfPlayerPicksChoice(0,null)
    JumpToLabel("バトル")
    0()
   IfPlayerPicksChoice(1,null)
    ShowMessageFace("sphinx_fc1",0,0,2,50)
    ShowMessage("\\n<Sphinx>Go as quickly as you can! There is no time to waste.")
    PictureClear(5)
    EndEventProcessing()
    0()
   404()
   0()
  EndIf()
  If(1,1028,0,6,1)
   ShowMessageFace("sphinx_fc1",0,0,2,51)
   ShowMessage("\\n<Sphinx>So it appears everything worked out. What brings you here this time?")
   If(4,529,0)
    If(0,2163,1)
     If(2,"A",1)
      ChangeSelfSwitch("A",0)
      ShowMessageFace("sara_fc1",1,0,2,52)
      ShowMessage("\\n<Sara>So you're our family's great ancestor, Sphinx. I am grateful for your help.")
      ShowMessageFace("sphinx_fc1",0,0,2,53)
      ShowMessage("\\n<Sphinx>Ah, so you must be Sara? You should be in control now, but why do I feel some uneasiness within you?")
      ShowMessageFace("sara_fc1",1,0,2,54)
      ShowMessage("\\n<Sara>Whenever I transform, my mind still goes all topsy-turvy.")
      ShowMessageFace("sphinx_fc1",2,0,2,55)
      ShowMessage("\\n<Sphinx>Lingering effects of the brain washing. Not surprising given Lilith's skill at sorcery.")
      ShowMessageFace("ruka_fc1",0,0,2,56)
      ShowMessage("\\n<Luka>...You know of her?")
      ShowMessageFace("sphinx_fc1",2,0,2,57)
      ShowMessage("\\n<Sphinx>Of course. Lilith was with me during the Great Monster Wars. I was certain that she and her sisters were long dead though.")
      ShowMessageFace("sphinx_fc1",0,0,2,58)
      ShowMessage("\\n<Sphinx>At any rate, be careful. Their power is far beyond what anyone today is capable of.")
      ShowMessageFace("sphinx_fc1",0,0,2,59)
      ShowMessage("\\n<Sphinx>Now then, is there anything else?")
      0()
     EndIf()
     0()
    EndIf()
    0()
   EndIf()
   ShowChoices(strings("Challenge her","That is all"),2)
   IfPlayerPicksChoice(0,null)
    JumpToLabel("バトル")
    0()
   IfPlayerPicksChoice(1,null)
    PictureDisplay(5,"80_sphinx_st03",0,0,0,0,100,100,255,0)
    ShowMessageFace("sphinx_fc1",2,0,2,60)
    ShowMessage("\\n<Sphinx>All of this has worn me out, I'll just sit and meditate here for awhile...")
    PictureClear(5)
    EndEventProcessing()
    0()
   404()
   0()
  EndIf()
  DefineLabel("バトル")
  ShowMessageFace("sphinx_fc1",0,0,2,61)
  ShowMessage("\\n<Sphinx>You wish to challenge me? Understand that I will strike with neither mercy nor restraint. If you lose, you will be nothing more than my next meal.")
  ShowMessageFace("sphinx_fc1",0,0,2,62)
  ShowMessage("\\n<Sphinx>There is nothing I can offer you for beating me, and I won't join your journey either.")
  ShowMessageFace("sphinx_fc1",0,0,2,63)
  ShowMessage("\\n<Sphinx>If all you want is a fight, then restate your challenge. It's been a while since I've eaten a tender, young fool.")
  ShowChoices(strings("Rescind the Challenge","Challenge her anyway"),0)
  IfPlayerPicksChoice(0,null)
   ShowMessageFace("sphinx_fc1",0,0,2,64)
   ShowMessage("\\n<Sphinx>Let us speak no more of fighting then. Your life can be put to better use out there than in my stomach.")
   PictureClear(5)
   EndEventProcessing()
   0()
  IfPlayerPicksChoice(1,null)
   ShowMessageFace("sphinx_fc1",0,0,2,65)
   ShowMessage("\\n<Sphinx>Prepare yourselves! This will be my first true fight in centuries!")
   PictureClear(5)
   283("ピラミッド2","")
   SetBattleBGM(bytes(0x04,0x08,0x6f,0x3a,0x0d,0x52,0x50,0x47,0x3a,0x3a,0x42,0x47,0x4d,0x08,0x3a,0x0a,0x40,0x6e,0x61,0x6d,0x65,0x49,0x22,0x0a,0x62,0x6f,0x73,0x73,0x31,0x06,0x3a,0x06,0x45,0x54,0x3a,0x0c,0x40,0x76,0x6f,0x6c,0x75,0x6d,0x65,0x69,0x69,0x3a,0x0b,0x40,0x70,0x69,0x74,0x63,0x68,0x69,0x69))
   ChangeSwitch(22,22,0)
   RunCommonEvent(10)
   Battle(0,247,false,false)
   RunCommonEvent(11)
   ChangeSwitch(22,22,1)
   SetBattleBGM(bytes(0x04,0x08,0x6f,0x3a,0x0d,0x52,0x50,0x47,0x3a,0x3a,0x42,0x47,0x4d,0x08,0x3a,0x0a,0x40,0x6e,0x61,0x6d,0x65,0x49,0x22,0x0b,0x62,0x61,0x74,0x74,0x6c,0x65,0x06,0x3a,0x06,0x45,0x54,0x3a,0x0c,0x40,0x76,0x6f,0x6c,0x75,0x6d,0x65,0x69,0x69,0x3a,0x0b,0x40,0x70,0x69,0x74,0x63,0x68,0x69,0x69))
   ChangeSwitch(2090,2090,0)
   355("gain_medal(3003)")
   PictureDisplay(5,"80_sphinx_st03",0,0,0,0,100,100,0,0)
   PictureMove(5,null,0,0,0,0,100,100,255,0,30,true)
   ShowMessageFace("sphinx_fc1",2,0,2,66)
   ShowMessage("\\n<Sphinx>Unfortunately, I appear to have been defeated. I do not know whether my skills have deteriorated or if you are extraordinary.")
   PictureDisplay(5,"80_sphinx_st01",0,0,0,0,100,100,255,0)
   ShowMessageFace("sphinx_fc1",0,0,2,67)
   ShowMessage("\\n<Sphinx>As I said, there is nothing I can give for your victory.")
   ShowMessageFace("sphinx_fc1",0,0,2,68)
   ShowMessage("\\n<Sphinx>You've proven your mettle as a man, go out in the world and make the most of it before you are too old to enjoy it.")
   PictureClear(5)
   EndEventProcessing()
   0()
  404()
  0()
 PAGE   2
  // condition: variable 1001 >= 31
  PictureDisplay(5,"80_sphinx_st01",0,0,0,0,100,100,0,0)
  PictureMove(5,null,0,0,0,0,100,100,255,0,30,true)
  If(8,540)
   ShowMessageFace("sphinx_fc1",2,0,2,1)
   ShowMessage("\\n<Sphinx>近頃、世の中が騒がしい。")
   ShowMessage("妾と同じ世代の者達が、何を血迷うたか外界を跋扈しておる。")
   ShowMessageFace("sphinx_fc1",2,0,2,2)
   ShowMessage("\\n<Sphinx>孫悟空にケツァルコァトル、テスカトリポカ……")
   ShowMessage("たわけ共め、今さら世に干渉するなど何のつもりか。")
   ShowMessageFace("sphinx_fc1",0,0,2,3)
   ShowMessage("\\n<Sphinx>おっと、ただの愚痴であった。")
   ShowMessage("さて、妾に何の用だ？")
   ShowChoices(strings("戦いを挑む","仲間になってもらう","特に用はない"),3)
   IfPlayerPicksChoice(0,null)
    ShowMessageFace("sphinx_fc1",0,0,2,4)
    ShowMessage("\\n<Sphinx>妾に挑むだと……？")
    ShowMessage("加減などせんし、負けた者は容赦なく食らうぞ。")
    ShowMessageFace("sphinx_fc1",0,0,2,5)
    ShowMessage("\\n<Sphinx>それでもいいというなら、挑むがいい……")
    ShowMessage("たまには、人など食らうのも悪くはなかろう。")
    ShowChoices(strings("やめておく","それでも戦いを挑む"),0)
    IfPlayerPicksChoice(0,null)
     ShowMessageFace("sphinx_fc1",0,0,2,6)
     ShowMessage("\\n<Sphinx>そうしておくのだな。")
     ShowMessage("その命、もっと有意義な事に費やすがいい……")
     PictureClear(5)
     EndEventProcessing()
     0()
    IfPlayerPicksChoice(1,null)
     ShowMessageFace("sphinx_fc1",0,0,2,7)
     ShowMessage("\\n<Sphinx>では、久方振りに本気を出すとしようか……！")
     PictureClear(5)
     283("ピラミッド2","")
     SetBattleBGM(bytes(0x04,0x08,0x6f,0x3a,0x0d,0x52,0x50,0x47,0x3a,0x3a,0x42,0x47,0x4d,0x08,0x3a,0x0a,0x40,0x6e,0x61,0x6d,0x65,0x49,0x22,0x0a,0x62,0x6f,0x73,0x73,0x31,0x06,0x3a,0x06,0x45,0x54,0x3a,0x0c,0x40,0x76,0x6f,0x6c,0x75,0x6d,0x65,0x69,0x69,0x3a,0x0b,0x40,0x70,0x69,0x74,0x63,0x68,0x69,0x69))
     ChangeSwitch(22,22,0)
     RunCommonEvent(10)
     Battle(0,247,false,false)
     RunCommonEvent(11)
     ChangeSwitch(22,22,1)
     SetBattleBGM(bytes(0x04,0x08,0x6f,0x3a,0x0d,0x52,0x50,0x47,0x3a,0x3a,0x42,0x47,0x4d,0x08,0x3a,0x0a,0x40,0x6e,0x61,0x6d,0x65,0x49,0x22,0x0b,0x62,0x61,0x74,0x74,0x6c,0x65,0x06,0x3a,0x06,0x45,0x54,0x3a,0x0c,0x40,0x76,0x6f,0x6c,0x75,0x6d,0x65,0x69,0x69,0x3a,0x0b,0x40,0x70,0x69,0x74,0x63,0x68,0x69,0x69))
     ChangeSwitch(2090,2090,0)
     355("gain_medal(3003)")
     PictureDisplay(5,"80_sphinx_st03",0,0,0,0,100,100,0,0)
     PictureMove(5,null,0,0,0,0,100,100,255,0,30,true)
     ShowMessageFace("sphinx_fc1",2,0,2,8)
     ShowMessage("\\n<Sphinx>無念、負けてしまったか。")
     ShowMessage("我が腕が鈍ったのか、主の力が並外れていたか……")
     PictureDisplay(5,"80_sphinx_st01",0,0,0,0,100,100,255,0)
     ShowMessageFace("sphinx_fc1",0,0,2,9)
     ShowMessage("\\n<Sphinx>まあ、久方ぶりに体を動かせて満足だ。")
     ShowMessage("まだまだ、同世代の妖魔どもにも遅れは取るまい。")
     ShowMessageFace("sphinx_fc1",0,0,2,10)
     ShowMessage("\\n<Sphinx>もし妾の力が欲しければ、言うが良い。")
     ShowMessage("特別に力になってやろうぞ。")
     PictureClear(5)
     EndEventProcessing()
     0()
    404()
    0()
   IfPlayerPicksChoice(1,null)
    If(0,2090,1)
     ShowMessageFace("sphinx_fc1",2,0,2,11)
     ShowMessage("\\n<Sphinx>断らせてもらおう。")
     ShowMessage("太古に生まれた妾が、今さらしゃしゃり出ようとも思わんぞ。")
     PictureClear(5)
     EndEventProcessing()
     0()
    EndIf()
    If(0,2090,0)
     ShowMessageFace("sphinx_fc1",0,0,2,12)
     ShowMessage("\\n<Sphinx>ふむ……少々、外に出てみたくなったところだ。")
     ShowMessage("久方ぶりに、世を闊歩してみるとしようか。")
     PictureClear(5)
     205(0,bytes(0x04,0x08,0x6f,0x3a,0x13,0x52,0x50,0x47,0x3a,0x3a,0x4d,0x6f,0x76,0x65,0x52,0x6f,0x75,0x74,0x65,0x09,0x3a,0x0c,0x40,0x72,0x65,0x70,0x65,0x61,0x74,0x46,0x3a,0x0f,0x40,0x73,0x6b,0x69,0x70,0x70,0x61,0x62,0x6c,0x65,0x46,0x3a,0x0a,0x40,0x77,0x61,0x69,0x74,0x54,0x3a,0x0a,0x40,0x6c,0x69,0x73,0x74,0x5b,0x09,0x6f,0x3a,0x15,0x52,0x50,0x47,0x3a,0x3a,0x4d,0x6f,0x76,0x65,0x43,0x6f,0x6d,0x6d,0x61,0x6e,0x64,0x07,0x3a,0x0a,0x40,0x63,0x6f,0x64,0x65,0x69,0x2a,0x3a,0x10,0x40,0x70,0x61,0x72,0x61,0x6d,0x65,0x74,0x65,0x72,0x73,0x5b,0x00,0x6f,0x3b,0x0a,0x07,0x3b,0x0b,0x69,0x0f,0x3b,0x0c,0x5b,0x00,0x6f,0x3b,0x0a,0x07,0x3b,0x0b,0x69,0x2c,0x3b,0x0c,0x5b,0x00,0x6f,0x3b,0x0a,0x07,0x3b,0x0b,0x69,0x00,0x3b,0x0c,0x5b,0x00))
     355("add_actor_ex(153)")
     249(bytes(0x04,0x08,0x6f,0x3a,0x0c,0x52,0x50,0x47,0x3a,0x3a,0x4d,0x45,0x08,0x3a,0x0a,0x40,0x6e,0x61,0x6d,0x65,0x49,0x22,0x0c,0x66,0x61,0x6e,0x66,0x61,0x6c,0x65,0x06,0x3a,0x06,0x45,0x54,0x3a,0x0b,0x40,0x70,0x69,0x74,0x63,0x68,0x69,0x69,0x3a,0x0c,0x40,0x76,0x6f,0x6c,0x75,0x6d,0x65,0x69,0x69))
     ShowMessageFace("",0,0,2,13)
     ShowMessage("スフィンクスが仲間に加わった！")
     ChangeSelfSwitch("B",0)
     Wait(60)
     ShowMessageFace("sara_fc1",1,0,2,14)
     ShowMessage("\\n<Sara>よろしくお願いします、ご先祖様。")
     ShowMessageFace("sphinx_fc1",0,0,2,15)
     ShowMessage("\\n<Sphinx>ほう、お主か……")
     ShowMessage("ずいぶん、妖魔の力を使いこなせるようになったようだ。")
     ShowMessageFace("sara_fc1",1,0,2,16)
     ShowMessage("\\n<Sara>はい、今後は一緒に戦いましょう！")
     ShowMessageFace("sphinx_fc1",0,0,2,17)
     ShowMessage("\\n<Sphinx>時を隔て、子孫と肩を並べ旅をする……")
     ShowMessage("思ったよりも、世の中は面白きものかもしれんな。")
     EndEventProcessing()
     0()
    EndIf()
    0()
   IfPlayerPicksChoice(2,null)
    ShowMessageFace("sphinx_fc1",0,0,2,18)
    ShowMessage("\\n<Sphinx>ふむ、顔を見せに来たのか。")
    ShowMessage("元気でやっているようで、何よりだ。")
    PictureClear(5)
    EndEventProcessing()
    0()
   404()
   0()
  Else()
   ShowMessageFace("sphinx_fc1",0,0,2,19)
   ShowMessage("\\n<Sphinx>またお主達か……妾に何か用でもあるのか？")
   ShowChoices(strings("イエローオーブが欲しい","用はない"),2)
   IfPlayerPicksChoice(0,null)
    ShowMessageFace("sphinx_fc1",2,0,2,20)
    ShowMessage("\\n<Sphinx>イエローオーブか……")
    ShowMessage("どういう事情でそれを欲するのだ？")
    ShowMessageFace("",0,0,2,21)
    ShowMessage("ルカは事情を話した……")
    ShowMessageFace("sphinx_fc1",2,0,2,22)
    ShowMessage("\\n<Sphinx>なるほど、魔王城に行くのか……")
    ShowMessage("ならば持って行くがいい、どうせ妾には不要のものだ。")
    250(bytes(0x04,0x08,0x6f,0x3a,0x0c,0x52,0x50,0x47,0x3a,0x3a,0x53,0x45,0x08,0x3a,0x0a,0x40,0x6e,0x61,0x6d,0x65,0x49,0x22,0x0a,0x49,0x74,0x65,0x6d,0x31,0x06,0x3a,0x06,0x45,0x54,0x3a,0x0b,0x40,0x70,0x69,0x74,0x63,0x68,0x69,0x69,0x3a,0x0c,0x40,0x76,0x6f,0x6c,0x75,0x6d,0x65,0x69,0x55))
    ChangeInventory_Item(540,0,0,1)
    ShowMessageFace("sphinx_fc1",0,0,2,23)
    ShowMessage("\\n<Sphinx>それでは、失せるがいい……")
    ShowMessage("……まあ、たまに顔でも見せよ。")
    PictureClear(5)
    RunCommonEvent(330)
    EndEventProcessing()
    0()
   IfPlayerPicksChoice(1,null)
    PictureDisplay(5,"80_sphinx_st03",0,0,0,0,100,100,255,0)
    ShowMessageFace("sphinx_fc1",2,0,2,24)
    ShowMessage("\\n<Sphinx>妾は、すでに全てに飽いたのだ。")
    ShowMessage("ここでそっとしておいてもらおうか……")
    PictureClear(5)
    EndEventProcessing()
    0()
   404()
   0()
  EndIf()
  0()
 PAGE   3
  // condition: self-switch B is ON
  0()
