#反射不可追加
module NWConst::UsableItem
	IGNORE_REFLECTION_ID = [41,42,43,44,45,46,47,48,49,50,51,52]
end

class Scene_Battle < Scene_Base
	#--------------------------------------------------------------------------
	# ○ スキル／アイテムの発動
	#--------------------------------------------------------------------------
	def invoke_item(target, item)
		return unless @subject.alive?
		if target.item_reflection?(@subject,item)
			invoke_magic_reflection(target, item)
		else
			apply_item_effects(apply_substitute(target, item), item)
		end
		@subject.last_target_index = target.index
	end
end

class Game_Battler < Game_BattlerBase
	def item_reflection?(user ,item)
		return false unless alive?
		elements = user.final_elements(item)
		if item_ignore_reflection?(user,item)
			return elements.select{|element| element_ignore_reflection?(element)}.all?{|element| element_reflection(element)}
		else
			return rand < item_mrf(user, item) || elements.any?{|element| element_reflection(element)}
		end
	end
	def element_ignore_reflection?(id)
		NWConst::UsableItem::IGNORE_REFLECTION_ID.include?(id)
	end
	def item_ignore_reflection?(user,item)
		user.final_elements(item).any?{|element| element_ignore_reflection?(element)}
	end
	
	def item_drain?(user, item)
		elements = user.final_elements(item)
		if item_ignore_reflection?(user,item)
			return elements.select{|element| element_ignore_reflection?(element)}.all?{|element| element_drain?(element)}
		else
			return elements.any?{|element| element_drain?(element)}
		end
	end
	
	#--------------------------------------------------------------------------
	# ○ スキル／アイテムの属性修正値を取得
	#--------------------------------------------------------------------------
	def item_element_rate(user, item)
		return  1.0 if item.element_penetrate?
		return -1.0 if item_drain?(user,item)
		return elements_max_rate(user.final_elements(item))
	end
end




#時間停止時はカウンターとかしない
class Scene_Battle < Scene_Base
	#--------------------------------------------------------------------------
	# ○ スキル／アイテムの対象への効果適用
	#--------------------------------------------------------------------------
	def process_invoke_item(base_action, first_use_items)
		enable_counter = !BattleManager.giveup?
		base_item = base_action.item
		@subject.invoke_repeats(base_item).times do |repeat_time|
			break unless @subject.current_action
			use_items = (repeat_time == 0 ? first_use_items : base_action.use_items(false))
			display_item = use_items.size == 1 ? use_items[0] : base_item
			if repeat_time != 0
				process_skill_word(display_item, base_action)
			end
			use_items.each_with_index do |item, item_time|
				break unless @subject.current_action
				if repeat_time != 0 or item_time != 0 # 反撃スキルから戻す
					display_skill_name(display_item)
					display_use_item(base_action, display_item)
				end
				enable_invoke = true
				action = Game_Action.new(@subject)
				action.send(item.is_skill? ? :set_skill : :set_item, item.id)
				action.target_index = base_action.target_index
				targets = action.make_targets.compact
				targets.delete(@subject) if item.target_reject_user?
				show_animation(targets, item.animation_id)
				item.add_anime.each {|anime_id| show_animation(targets, anime_id) }
				if enable_counter                  # 拡張反撃
					targets.uniq.each {|target|
						if target.item_counter_ex?(@subject,item)
							invoke_counter_attack(target, item)
							enable_invoke = false           # スキル発動と通常反撃を無効
							break                           # 以降の先手反撃を無効
						end
					}
				end
				if enable_invoke                      # 効果の発動
					$game_temp.normal_invoke_start
					e = @subject.item_add_effects(item)	
					unless e.empty?
						item= Marshal.load(Marshal.dump(item))
						item.effects += e
					end
					targets.each {|target|
						item.repeats.times { invoke_item(target, item) } 
					}
					@subject.item_one_use_apply(item, targets, self)
					$game_temp.normal_invoke_end
				end
				if enable_invoke and enable_counter   # 通常反撃
					targets.uniq.each {|target|
						if target.item_counter?(@subject,item)
							invoke_counter_attack(target, item)
						end
					}
				end
				enable_counter = false  # 反撃できるのは最初の回の最初のスキルのみ
				@log_window.clear
			end # use_items.each
			@log_window.clear  # 2行上のclearはbreakによって無視される可能性がある
			break if $game_troop.all_dead?
		end # invoke_repeats.times
	end
	
	
	
end

class Game_Battler
	def enable_action?(user,item)
		!BattleManager.giveup? && alive? && movable? && !($game_party.in_over_drive? && $game_party.od_user != self)
	end
	def item_counter?(user ,item)
		enable_action?(user ,item) && rand < item_cnt(user, item)
	end
	
	def item_counter_ex?(user , item)
		enable_action?(user ,item) &&  rand < item_cnt_ex(user, item)
	end
end

#全滅変更
#==============================================================================
# ■ Game_Party
#==============================================================================
class Game_Party < Game_Unit
	def all_dead?
		return (super || alive_members.all?{|member| member.all_dead_state?})&& !$game_switches[NWConst::Sw::ALL_DEAD_DISABLE] 
	end
end


class Game_Battler < Game_BattlerBase
	def all_dead_state?
		states.any?{|state| state.all_dead?}
	end
	
	
end


class RPG::State < RPG::BaseItem
	def all_dead?
		@data_ex.key?(:all_dead) ? @data_ex[:all_dead] : false
	end
end

class Game_Party < Game_Unit
	def battle_members_id
		@actors[0, max_battle_members]
	end
end
